{
  "className": "LandType",
  "listed": 1,
  "elements": [
    {
      "id": 10,
      "name": "Sea",
      "tag": "sea",
      "gfxColor": "#1E90FF"
    },
    {
      "id": 11,
      "name": "Frozen Sea",
      "tag": "frozen_sea",
      "gfxColor": "#DDDDDD"
    },
    {
      "id": 20,
      "name": "Plains",
      "tag": "plains",
      "gfxColor": "#55EE55"
    },
    {
      "id": 21,
      "name": "Hills",
      "tag": "hills",
      "gfxColor": "#ADFF2F"
    },
    {
      "id": 22,
      "name": "Low Mountains",
      "tag": "low_mountains",
      "gfxColor": "#808000"
    },
    {
      "id": 23,
      "name": "High Mountains",
      "tag": "high_mountains",
      "gfxColor": "#8B4513"
    },
    {
      "id": 24,
      "name": "Taiga",
      "tag": "taiga",
      "gfxColor": "#77AAAA"
    },
    {
      "id": 25,
      "name": "Steppe",
      "tag": "steppe",
      "gfxColor": "#F0E68C"
    },
    {
      "id": 26,
      "name": "Desert",
      "tag": "desert",
      "gfxColor": "#FFFF00"
    }

  ]
}